{ "backgroundcolor":"#32222e",
 "height":34,
 "layers":[
        {
         "data":[384, 384, 384, 384, 384, 384, 377, 377, 377, 377, 377, 384, 377, 377, 377, 377, 377, 377, 377, 377, 377, 377, 377, 377, 377, 377, 390, 384, 384, 377, 384, 384, 384, 377, 377, 377, 384, 377, 377, 377, 377, 377, 377, 384, 384, 384, 384, 384, 384, 377, 377, 377, 390, 384, 384, 384, 384, 384, 384, 384, 377, 377, 377, 377, 377, 377, 384, 384, 384, 384, 384, 377, 384, 384, 384, 384, 384, 384, 390, 390, 384, 384, 377, 517, 517, 384, 384, 517, 517, 384, 384, 384, 384, 384, 384, 384, 384, 384, 384, 384, 384, 384, 384, 384, 390, 390, 390, 384, 384, 517, 517, 517, 517, 384, 517, 517, 384, 384, 384, 384, 384, 384, 384, 384, 377, 384, 384, 377, 384, 384, 390, 390, 390, 384, 377, 517, 384, 517, 517, 517, 384, 517, 384, 384, 377, 377, 384, 384, 384, 384, 384, 384, 384, 384, 384, 384, 342, 390, 390, 390, 384, 384, 384, 384, 517, 384, 384, 384, 384, 384, 384, 384, 384, 384, 384, 384, 384, 384, 384, 384, 384, 384, 342, 342, 390, 390, 390, 384, 384, 384, 384, 384, 384, 384, 384, 384, 384, 384, 384, 390, 390, 390, 390, 390, 390, 390, 390, 384, 342, 342, 342, 342, 390, 390, 390, 384, 384, 384, 384, 384, 390, 390, 390, 390, 390, 390, 390, 390, 390, 390, 390, 390, 390, 390, 342, 342, 342, 342, 342, 390, 390, 390, 173, 384, 390, 390, 390, 390, 390, 390, 390, 390, 390, 390, 390, 390, 390, 390, 390, 390, 342, 342, 342, 342, 342, 342, 342, 342, 173, 390, 390, 390, 390, 390, 390, 390, 390, 390, 390, 390, 390, 390, 390, 390, 390, 390, 342, 342, 390, 342, 342, 526, 526, 526, 173, 526, 390, 390, 390, 390, 390, 390, 390, 390, 390, 390, 390, 390, 390, 390, 390, 390, 342, 342, 342, 342, 342, 342, 509, 509, 509, 526, 342, 390, 342, 390, 390, 390, 390, 390, 390, 390, 390, 390, 390, 390, 390, 390, 342, 342, 342, 342, 342, 509, 509, 509, 509, 509, 526, 526, 390, 390, 390, 390, 390, 390, 390, 390, 390, 390, 390, 390, 390, 390, 342, 342, 342, 526, 509, 509, 509, 517, 509, 509, 509, 526, 342, 342, 390, 342, 390, 390, 342, 390, 390, 390, 390, 390, 342, 390, 342, 342, 342, 526, 509, 509, 517, 517, 517, 509, 509, 406, 526, 342, 342, 390, 390, 390, 390, 390, 390, 390, 390, 390, 390, 390, 342, 342, 526, 526, 509, 509, 509, 517, 406, 517, 509, 508, 516, 526, 526, 526, 342, 342, 342, 342, 342, 342, 342, 342, 342, 342, 342, 342, 526, 526, 526, 509, 509, 509, 517, 509, 508, 516, 491, 491, 526, 526, 342, 390, 342, 342, 342, 342, 342, 342, 342, 342, 342, 342, 342, 526, 526, 526, 509, 509, 509, 508, 516, 491, 491, 491, 408, 526, 526, 526, 342, 342, 342, 342, 342, 342, 342, 342, 342, 342, 342, 342, 526, 526, 526, 406, 508, 516, 491, 491, 491, 491, 491, 491, 526, 526, 342, 342, 342, 342, 342, 342, 342, 342, 342, 342, 342, 342, 342, 526, 526, 526, 516, 491, 491, 491, 491, 491, 491, 491, 408, 526, 526, 526, 342, 342, 342, 342, 342, 342, 342, 342, 342, 342, 342, 342, 526, 526, 526, 491, 491, 491, 491, 408, 491, 491, 491, 491, 526, 526, 526, 342, 342, 342, 342, 342, 342, 342, 342, 342, 342, 342, 342, 526, 526, 526, 408, 491, 491, 491, 491, 491, 491, 508, 516, 526, 526, 342, 342, 342, 342, 342, 342, 342, 342, 342, 342, 342, 342, 342, 342, 526, 526, 491, 491, 491, 491, 491, 508, 516, 509, 509, 526, 526, 342, 342, 342, 342, 342, 342, 342, 342, 342, 342, 342, 342, 342, 342, 526, 526, 408, 491, 491, 508, 516, 509, 509, 406, 526, 526, 342, 342, 342, 342, 342, 342, 342, 342, 342, 342, 342, 342, 342, 342, 526, 526, 526, 491, 508, 516, 509, 408, 509, 509, 509, 526, 342, 342, 342, 342, 342, 342, 342, 342, 342, 342, 342, 342, 342, 342, 342, 342, 526, 526, 516, 509, 509, 509, 339, 509, 509, 526, 526, 342, 342, 342, 342, 342, 342, 342, 342, 342, 342, 342, 342, 342, 342, 342, 526, 526, 526, 509, 406, 509, 509, 406, 509, 526, 342, 342, 342, 342, 342, 342, 342, 342, 342, 342, 342, 342, 342, 342, 342, 342, 526, 526, 342, 526, 526, 509, 509, 509, 509, 526, 342, 342, 342, 342, 342, 342, 342, 342, 342, 342, 342, 342, 342, 342, 342, 342, 342, 342, 342, 526, 526, 526, 526, 526, 526, 526, 342, 342, 342, 342, 342, 342, 342, 342, 342, 342, 342, 342, 342, 342, 342, 342, 342, 342, 342, 342, 342, 342, 342, 342, 342, 342, 526, 526, 342, 342, 0, 342, 342, 342, 342, 342, 342, 342, 342, 342, 342, 342, 342, 342, 342, 342, 342, 342, 342, 342, 342, 342, 342, 342, 342, 342, 0, 0, 342, 342, 342, 342, 342, 342, 342, 342, 342, 342, 342, 342, 342, 342, 342, 342, 342, 342, 342, 342, 342, 342, 342, 342, 0, 0, 0, 0, 342, 342, 342, 342, 342, 342, 342, 342, 342, 342, 342, 342, 342, 342, 342, 342, 0, 0, 0, 0, 0, 0],
         "height":34,
         "name":"tiles",
         "opacity":0.550000011920929,
         "type":"tilelayer",
         "visible":true,
         "width":26,
         "x":0,
         "y":0
        }, 
        {
         "data":[0, 0, 0, 0, 0, 0, 0, 0, 0, 0, 0, 0, 0, 0, 0, 0, 0, 0, 0, 0, 0, 0, 0, 0, 0, 0, 0, 0, 0, 0, 0, 0, 0, 0, 0, 0, 0, 0, 0, 0, 0, 0, 0, 0, 0, 0, 0, 0, 0, 0, 0, 0, 0, 0, 0, 0, 0, 0, 0, 0, 0, 0, 0, 0, 0, 0, 0, 0, 0, 0, 0, 0, 0, 0, 0, 0, 0, 0, 0, 0, 0, 0, 0, 0, 0, 0, 0, 0, 0, 0, 0, 0, 0, 0, 0, 0, 0, 0, 0, 0, 0, 0, 0, 0, 0, 0, 0, 0, 0, 0, 0, 0, 0, 0, 0, 0, 0, 0, 0, 0, 0, 0, 0, 0, 0, 0, 0, 0, 0, 0, 0, 683, 0, 0, 0, 0, 0, 0, 0, 0, 0, 0, 0, 0, 0, 0, 0, 0, 0, 0, 0, 0, 0, 0, 0, 0, 0, 0, 0, 0, 0, 0, 0, 0, 0, 0, 0, 0, 0, 0, 0, 0, 0, 0, 0, 0, 0, 0, 0, 0, 0, 0, 0, 0, 0, 0, 0, 0, 0, 0, 0, 0, 0, 0, 0, 0, 0, 0, 0, 0, 0, 0, 0, 0, 0, 0, 0, 0, 0, 0, 0, 0, 0, 0, 0, 0, 0, 0, 0, 0, 0, 0, 0, 0, 0, 0, 0, 0, 0, 0, 0, 0, 0, 0, 0, 0, 0, 0, 683, 0, 0, 0, 0, 0, 0, 0, 0, 0, 0, 0, 0, 0, 683, 0, 0, 0, 0, 683, 0, 0, 0, 29, 0, 0, 0, 0, 0, 0, 0, 0, 0, 0, 683, 0, 0, 0, 0, 0, 0, 0, 0, 0, 0, 0, 0, 0, 0, 0, 0, 0, 0, 0, 0, 0, 0, 0, 0, 0, 0, 0, 0, 0, 0, 0, 0, 0, 0, 0, 0, 683, 0, 0, 0, 0, 0, 0, 0, 0, 0, 0, 0, 0, 0, 0, 0, 0, 0, 0, 0, 0, 0, 0, 0, 0, 0, 0, 0, 0, 0, 0, 0, 0, 0, 0, 0, 0, 0, 0, 0, 0, 0, 0, 0, 683, 0, 0, 0, 0, 683, 0, 0, 0, 0, 0, 0, 0, 0, 0, 0, 0, 0, 0, 0, 0, 0, 0, 0, 0, 0, 0, 0, 0, 0, 0, 0, 0, 0, 0, 0, 0, 0, 0, 0, 0, 0, 0, 0, 0, 0, 0, 0, 0, 0, 0, 0, 0, 0, 0, 0, 0, 0, 0, 0, 0, 0, 0, 0, 0, 0, 0, 0, 0, 0, 0, 0, 0, 0, 0, 0, 0, 0, 0, 0, 0, 29, 0, 0, 0, 0, 0, 683, 0, 0, 0, 0, 0, 0, 0, 0, 0, 0, 0, 0, 0, 0, 0, 0, 0, 0, 0, 0, 0, 0, 0, 0, 0, 0, 0, 0, 0, 0, 0, 0, 0, 0, 0, 0, 0, 0, 0, 0, 0, 0, 0, 0, 0, 0, 0, 0, 0, 0, 0, 0, 0, 0, 0, 0, 0, 0, 0, 0, 0, 0, 0, 0, 0, 0, 0, 0, 0, 0, 0, 0, 0, 0, 0, 0, 0, 0, 0, 0, 0, 0, 0, 0, 0, 0, 0, 0, 0, 0, 0, 0, 0, 0, 0, 0, 0, 0, 0, 0, 0, 0, 0, 0, 0, 0, 0, 0, 0, 0, 0, 0, 0, 0, 0, 0, 0, 0, 0, 0, 0, 0, 0, 0, 0, 0, 0, 0, 0, 0, 0, 0, 0, 0, 0, 0, 0, 0, 0, 0, 0, 0, 0, 0, 0, 0, 0, 0, 0, 0, 0, 0, 0, 0, 0, 0, 0, 0, 0, 0, 0, 0, 0, 0, 0, 0, 0, 0, 0, 0, 0, 0, 0, 0, 0, 0, 0, 0, 0, 0, 0, 0, 0, 0, 0, 0, 0, 0, 0, 0, 0, 0, 0, 0, 0, 0, 0, 0, 0, 0, 0, 0, 0, 0, 0, 0, 0, 0, 0, 0, 0, 0, 0, 0, 0, 0, 0, 0, 0, 0, 0, 0, 0, 0, 0, 0, 0, 0, 0, 0, 0, 0, 0, 0, 0, 0, 0, 0, 0, 0, 0, 0, 0, 0, 0, 0, 0, 0, 0, 0, 0, 0, 0, 0, 0, 0, 0, 0, 0, 0, 0, 0, 0, 0, 0, 0, 0, 0, 0, 0, 0, 0, 0, 0, 0, 0, 0, 0, 0, 0, 0, 0, 0, 0, 0, 0, 0, 0, 0, 0, 0, 0, 0, 0, 0, 0, 0, 0, 0, 0, 0, 0, 0, 0, 0, 0, 0, 0, 0, 0, 0, 0, 0, 0, 0, 0, 0, 0, 0, 0, 0, 0, 0, 0, 0, 0, 0, 0, 0, 0, 0, 0, 0, 0, 0, 0, 0, 0, 0, 0, 0, 0, 0, 0, 0, 0, 0, 0, 0, 0, 0, 0, 0, 0, 0, 0, 0, 0, 0, 0, 0, 0, 0, 0, 0, 0, 0, 0, 0, 0, 0, 0, 0, 0, 0, 0, 0, 0, 0, 0, 0, 0, 0, 0, 0, 0, 0, 0, 0, 0, 0, 0, 0, 0, 0, 0, 0, 0, 0, 0, 0, 0, 0, 0, 0, 0, 0, 0, 0, 0, 0, 0, 0, 0, 0, 0, 0, 0, 0, 0, 0, 0, 0, 0, 0, 0, 0, 0, 0, 0, 0, 0, 0, 0, 0, 0, 0, 0, 0, 0, 0, 0, 0],
         "height":34,
         "name":"doodads",
         "opacity":1,
         "type":"tilelayer",
         "visible":true,
         "width":26,
         "x":0,
         "y":0
        }, 
        {
         "data":[0, 0, 0, 0, 0, 0, 0, 0, 0, 0, 0, 0, 0, 0, 0, 0, 0, 0, 0, 0, 0, 0, 0, 0, 0, 0, 0, 0, 0, 0, 0, 0, 0, 0, 0, 0, 0, 0, 0, 0, 0, 0, 0, 0, 0, 0, 0, 0, 0, 0, 0, 0, 0, 0, 0, 0, 0, 79, 0, 0, 0, 79, 80, 80, 0, 0, 0, 0, 0, 0, 0, 0, 0, 0, 0, 0, 0, 0, 0, 0, 0, 0, 0, 0, 0, 0, 0, 0, 0, 0, 0, 0, 0, 0, 0, 0, 0, 0, 0, 0, 0, 0, 0, 0, 0, 0, 0, 0, 0, 0, 0, 0, 0, 0, 0, 0, 0, 0, 0, 0, 0, 0, 0, 0, 0, 0, 0, 0, 0, 0, 0, 0, 0, 0, 0, 0, 0, 0, 0, 0, 0, 0, 0, 0, 0, 0, 0, 0, 0, 0, 0, 0, 0, 0, 0, 0, 0, 0, 0, 0, 0, 79, 79, 80, 0, 80, 79, 0, 0, 0, 0, 0, 0, 0, 0, 0, 0, 0, 0, 0, 0, 0, 0, 0, 0, 0, 0, 0, 0, 0, 0, 0, 0, 0, 0, 0, 0, 0, 0, 0, 0, 0, 0, 0, 0, 0, 0, 0, 0, 0, 0, 0, 0, 0, 0, 0, 0, 0, 0, 0, 0, 0, 0, 0, 0, 0, 0, 0, 0, 0, 0, 0, 0, 0, 0, 0, 0, 0, 0, 0, 0, 0, 0, 0, 0, 0, 0, 0, 0, 0, 0, 0, 0, 0, 0, 0, 0, 0, 0, 0, 0, 0, 0, 0, 0, 0, 0, 0, 0, 0, 0, 0, 0, 0, 0, 0, 0, 0, 0, 0, 0, 0, 0, 0, 0, 0, 0, 0, 0, 0, 0, 0, 0, 0, 0, 0, 0, 0, 0, 0, 0, 0, 0, 0, 0, 0, 0, 0, 0, 0, 0, 0, 0, 0, 0, 0, 0, 223, 208, 208, 0, 205, 0, 0, 0, 0, 0, 0, 0, 0, 0, 0, 0, 0, 0, 0, 0, 0, 0, 0, 0, 0, 223, 587, 0, 0, 0, 0, 205, 672, 0, 0, 0, 0, 0, 0, 0, 0, 0, 0, 0, 0, 0, 0, 0, 0, 0, 0, 215, 0, 0, 0, 0, 0, 0, 205, 0, 0, 0, 0, 0, 0, 0, 0, 0, 0, 0, 0, 0, 0, 0, 0, 0, 0, 215, 0, 0, 0, 0, 0, 0, 0, 205, 0, 0, 0, 0, 0, 0, 0, 0, 0, 0, 0, 0, 0, 0, 0, 0, 0, 215, 0, 0, 0, 408, 75, 0, 0, 0, 205, 0, 0, 0, 0, 0, 0, 0, 0, 0, 0, 0, 0, 0, 0, 0, 0, 206, 0, 0, 0, 76, 0, 0, 0, 0, 0, 205, 0, 0, 0, 0, 0, 0, 0, 0, 0, 0, 0, 0, 0, 0, 0, 0, 206, 0, 0, 0, 0, 0, 0, 0, 0, 671, 205, 672, 0, 0, 0, 0, 0, 0, 0, 0, 0, 0, 0, 0, 0, 0, 669, 206, 0, 0, 0, 0, 0, 0, 0, 0, 0, 205, 0, 0, 0, 0, 0, 0, 0, 0, 0, 0, 0, 0, 0, 0, 0, 0, 206, 0, 0, 0, 0, 0, 0, 0, 0, 671, 205, 672, 0, 0, 0, 0, 0, 0, 0, 0, 0, 0, 0, 0, 0, 0, 669, 206, 548, 0, 0, 0, 77, 0, 0, 0, 559, 205, 0, 0, 0, 0, 0, 0, 0, 0, 0, 0, 0, 0, 0, 0, 0, 0, 206, 670, 0, 0, 0, 0, 0, 0, 0, 0, 205, 0, 0, 0, 0, 0, 0, 0, 0, 0, 0, 0, 0, 0, 0, 0, 0, 206, 0, 0, 0, 0, 0, 0, 0, 0, 216, 0, 0, 0, 0, 0, 0, 0, 0, 0, 0, 0, 0, 0, 0, 0, 0, 669, 206, 670, 0, 0, 0, 0, 0, 0, 0, 205, 0, 0, 0, 0, 0, 0, 0, 0, 0, 0, 0, 0, 0, 0, 0, 0, 0, 206, 0, 0, 0, 0, 77, 0, 0, 216, 0, 0, 0, 0, 0, 0, 0, 0, 0, 0, 0, 0, 0, 0, 0, 0, 0, 669, 206, 0, 0, 0, 0, 0, 0, 216, 0, 0, 0, 0, 0, 0, 0, 0, 0, 0, 0, 0, 0, 0, 0, 0, 0, 0, 0, 206, 207, 0, 0, 0, 0, 216, 0, 0, 0, 0, 0, 0, 0, 0, 0, 0, 0, 0, 0, 0, 0, 0, 0, 0, 0, 0, 0, 206, 207, 207, 207, 222, 0, 0, 0, 0, 0, 0, 0, 0, 0, 0, 0, 0, 0, 0, 0, 0, 0, 0, 0, 0, 0, 0, 0, 0, 0, 0, 0, 0, 0, 0, 0, 0, 0, 0, 0, 0, 0, 0, 0, 0, 0, 0, 0, 0, 0, 0, 0, 0, 0, 0, 0, 0, 0, 221, 0, 0, 0, 0, 0, 0, 0, 0, 0, 0, 0, 0, 0, 0, 0, 0, 0, 0, 0, 0, 0, 0, 0, 0, 0, 0, 0, 0, 0, 0, 0, 0, 0, 0, 0, 0, 0, 0, 0, 0, 0, 0, 0, 0, 0, 0, 0, 0, 0, 0, 0, 0, 0, 0, 0, 0, 0, 0, 0, 0, 0, 0, 0, 0, 0, 0, 0, 0, 0, 0, 0, 0, 0, 0, 0, 0, 0, 0, 0, 0, 0],
         "height":34,
         "name":"walls",
         "opacity":1,
         "properties":
            {
             "tileset":"walls"
            },
         "propertytypes":
            {
             "tileset":"string"
            },
         "type":"tilelayer",
         "visible":true,
         "width":26,
         "x":0,
         "y":0
        }, 
        {
         "draworder":"topdown",
         "name":"mobs",
         "objects":[
                {
                 "gid":788,
                 "height":24,
                 "id":663,
                 "name":"the pumpkin sailor",
                 "rotation":0,
                 "type":"",
                 "visible":true,
                 "width":24,
                 "x":56,
                 "y":40
                }],
         "opacity":1,
         "properties":
            {
             "faction":"2",
             "tileset":"mobs"
            },
         "propertytypes":
            {
             "faction":"string",
             "tileset":"string"
            },
         "type":"objectgroup",
         "visible":true,
         "x":0,
         "y":0
        }, 
        {
         "draworder":"topdown",
         "name":"objects",
         "objects":[
                {
                 "gid":712,
                 "height":24,
                 "id":660,
                 "name":"",
                 "rotation":0,
                 "type":"",
                 "visible":true,
                 "width":24,
                 "x":56,
                 "y":144
                }, 
                {
                 "gid":711,
                 "height":24,
                 "id":661,
                 "name":"",
                 "rotation":0,
                 "type":"",
                 "visible":true,
                 "width":24,
                 "x":152,
                 "y":240
                }, 
                {
                 "gid":665,
                 "height":8,
                 "id":668,
                 "name":"|greencandle",
                 "properties":
                    {
                     "cpnAggro":"{ \"faction\": 1}"
                    },
                 "propertytypes":
                    {
                     "cpnAggro":"string"
                    },
                 "rotation":0,
                 "type":"",
                 "visible":true,
                 "width":8,
                 "x":40,
                 "y":40
                }, 
                {
                 "gid":665,
                 "height":8,
                 "id":670,
                 "name":"|greencandle",
                 "properties":
                    {
                     "cpnAggro":"{ \"faction\": 1}"
                    },
                 "propertytypes":
                    {
                     "cpnAggro":"string"
                    },
                 "rotation":0,
                 "type":"",
                 "visible":true,
                 "width":8,
                 "x":152,
                 "y":200
                }, 
                {
                 "gid":665,
                 "height":8,
                 "id":671,
                 "name":"|greencandle",
                 "properties":
                    {
                     "cpnAggro":"{ \"faction\": 1}"
                    },
                 "propertytypes":
                    {
                     "cpnAggro":"string"
                    },
                 "rotation":0,
                 "type":"",
                 "visible":true,
                 "width":8,
                 "x":128,
                 "y":224
                }, 
                {
                 "gid":665,
                 "height":8,
                 "id":674,
                 "name":"|greencandle",
                 "properties":
                    {
                     "cpnAggro":"{ \"faction\": 1}"
                    },
                 "propertytypes":
                    {
                     "cpnAggro":"string"
                    },
                 "rotation":0,
                 "type":"",
                 "visible":true,
                 "width":8,
                 "x":56,
                 "y":160
                }, 
                {
                 "gid":665,
                 "height":8,
                 "id":675,
                 "name":"|greencandle",
                 "properties":
                    {
                     "cpnAggro":"{ \"faction\": 1}"
                    },
                 "propertytypes":
                    {
                     "cpnAggro":"string"
                    },
                 "rotation":0,
                 "type":"",
                 "visible":true,
                 "width":8,
                 "x":88,
                 "y":128
                }],
         "opacity":1,
         "properties":
            {
             "blocking":"1",
             "tileset":"objects"
            },
         "propertytypes":
            {
             "blocking":"string",
             "tileset":"string"
            },
         "type":"objectgroup",
         "visible":true,
         "x":0,
         "y":0
        }, 
        {
         "draworder":"topdown",
         "name":"clientObjects",
         "objects":[],
         "opacity":1,
         "type":"objectgroup",
         "visible":true,
         "x":0,
         "y":0
        }, 
        {
         "draworder":"topdown",
         "name":"notices",
         "objects":[
                {
                 "height":24,
                 "id":666,
                 "name":"shopCaptain",
                 "rotation":0,
                 "type":"",
                 "visible":true,
                 "width":24,
                 "x":56,
                 "y":24
                }, 
                {
                 "height":24,
                 "id":667,
                 "name":"shopCaptain",
                 "rotation":0,
                 "type":"",
                 "visible":true,
                 "width":24,
                 "x":56,
                 "y":24
                }],
         "opacity":1,
         "type":"objectgroup",
         "visible":true,
         "x":0,
         "y":0
        }, 
        {
         "draworder":"topdown",
         "name":"rooms",
         "objects":[],
         "opacity":1,
         "type":"objectgroup",
         "visible":true,
         "x":0,
         "y":0
        }],
 "nextobjectid":676,
 "orientation":"orthogonal",
 "properties":
    {
     "instanced":"0",
     "name":"Test Zone",
     "spawn":"[{\"maxLevel\":1,\"x\":60,\"y\":116},{\"maxLevel\":999,\"x\":89,\"y\":48}]"
    },
 "propertytypes":
    {
     "instanced":"string",
     "name":"string",
     "spawn":"string"
    },
 "renderorder":"right-down",
 "tileheight":8,
 "tilesets":[
        {
         "columns":8,
         "firstgid":1,
         "image":"..\/..\/..\/..\/..\/client\/images\/walls.png",
         "imageheight":256,
         "imagewidth":64,
         "margin":0,
         "name":"walls",
         "spacing":0,
         "tilecount":256,
         "tileheight":8,
         "tiles":
            {
             "0":
                {
                 "probability":0.200000002980232
                },
             "2":
                {
                 "probability":0.600000023841858
                },
             "29":
                {
                 "probability":0.800000011920929
                },
             "3":
                {
                 "probability":0.200000002980232
                },
             "30":
                {
                 "probability":0.200000002980232
                },
             "31":
                {
                 "probability":0.200000002980232
                },
             "4":
                {
                 "probability":0.200000002980232
                },
             "50":
                {
                 "probability":0.400000005960464
                },
             "8":
                {
                 "probability":0.100000001490116
                }
            },
         "tilewidth":8
        }, 
        {
         "columns":8,
         "firstgid":257,
         "image":"..\/..\/..\/..\/..\/client\/images\/mobs.png",
         "imageheight":80,
         "imagewidth":64,
         "margin":0,
         "name":"mobs",
         "spacing":0,
         "tilecount":80,
         "tileheight":8,
         "tileproperties":
            {
             "19":
                {
                 "portal":"midgaard-inn-room_2,1"
                }
            },
         "tilepropertytypes":
            {
             "19":
                {
                 "portal":"string"
                }
            },
         "tilewidth":8
        }, 
        {
         "columns":8,
         "firstgid":337,
         "image":"..\/..\/..\/..\/..\/client\/images\/tiles.png",
         "imageheight":192,
         "imagewidth":64,
         "margin":0,
         "name":"tiles",
         "spacing":0,
         "tilecount":192,
         "tileheight":8,
         "tiles":
            {
             "0":
                {
                 "probability":2
                },
             "11":
                {
                 "probability":4
                },
             "14":
                {
                 "probability":0.5
                },
             "2":
                {
                 "probability":4
                },
             "23":
                {
                 "probability":0.200000002980232
                },
             "24":
                {
                 "probability":0.200000002980232
                },
             "29":
                {
                 "probability":0.5
                },
             "3":
                {
                 "probability":7
                },
             "30":
                {
                 "probability":0.200000002980232
                },
             "31":
                {
                 "probability":10
                },
             "38":
                {
                 "probability":3
                },
             "39":
                {
                 "probability":3
                },
             "40":
                {
                 "probability":15
                },
             "41":
                {
                 "probability":2
                },
             "42":
                {
                 "probability":26
                },
             "47":
                {
                 "probability":10
                },
             "5":
                {
                 "probability":0.00999999977648258
                },
             "54":
                {
                 "probability":0.5
                },
             "6":
                {
                 "probability":0.00499999988824129
                },
             "7":
                {
                 "probability":0.100000001490116
                },
             "8":
                {
                 "probability":0.5
                },
             "9":
                {
                 "probability":4
                }
            },
         "tilewidth":8
        }, 
        {
         "columns":8,
         "firstgid":529,
         "image":"..\/..\/..\/..\/..\/client\/images\/objects.png",
         "imageheight":176,
         "imagewidth":64,
         "margin":0,
         "name":"objects",
         "spacing":0,
         "tilecount":176,
         "tileheight":8,
         "tiles":
            {
             "42":
                {
                 "probability":5
                }
            },
         "tilewidth":8
        }, 
        {
         "columns":8,
         "firstgid":705,
         "image":"..\/..\/..\/..\/..\/client\/images\/bigObjects.png",
         "imageheight":240,
         "imagewidth":192,
         "margin":0,
         "name":"bigObjects",
         "spacing":0,
         "tilecount":80,
         "tileheight":24,
         "tilewidth":24
        }, 
        {
         "columns":8,
         "firstgid":785,
         "image":"..\/..\/..\/..\/..\/client\/images\/bosses.png",
         "imageheight":240,
         "imagewidth":192,
         "margin":0,
         "name":"bosses",
         "spacing":0,
         "tilecount":80,
         "tileheight":24,
         "tilewidth":24
        }],
 "tilewidth":8,
 "type":"map",
 "version":"2017.05.26",
 "width":26
}